Meeting 1
…
Meeting 1

Siobhan Lock

11/11/2021

Meeting 1

Data set-up

## # A tibble: 60 x 197
##    COUNTRY    ID  BEEF VENISON BURGER  PORK  LAMB CHICKEN BACON   HAM CHORIZO
##    <chr>   <int> <dbl>   <dbl>  <dbl> <dbl> <dbl>   <dbl> <dbl> <dbl>   <dbl>
##  1 UK          1     3       1      2     2     2       4     2     3       4
##  2 UK          2     4       1      2     3     3       4     3     4       1
##  3 UK          3     4       1      2     3     2       5     2     5       3
##  4 UK          4     3       1      2     1     2       6     6     4       1
##  5 UK          5     2       1      1     4     1       4     2     2       2
##  6 UK          6     2       1      2     4     1       2     2     4       3
##  7 UK          7     1       1      1     1     1       1     1     1       1
##  8 UK          8     3       1      3     3     3       4     6     6       1
##  9 UK          9     4       1      2     4     2       4     4     2       3
## 10 UK         10     4       1      2     2     2       4     2     3       1
## # ... with 50 more rows, and 186 more variables: CORNBEEF <dbl>, SAUSAGE <dbl>,
## #   MEATBALLS <dbl>, SAVPIES <dbl>, SAUERSTEW <dbl>, STUFCAB <dbl>,
## #   LIVER <dbl>, PATE <dbl>, FRYFISH <dbl>, FISHFING <dbl>, WHTEFISH <dbl>,
## #   OILFISHF <dbl>, OILFISHC <dbl>, SMOKEFISH <dbl>, SHELFISH <dbl>,
## #   FISHROE <dbl>, CARP <dbl>, TROUT <dbl>, WHTBREADSL <dbl>, WHTBREADRL <dbl>,
## #   WHLEBREADSL <dbl>, WHLEBREADRL <dbl>, CRMCRACK <dbl>, CRISPBRD <dbl>,
## #   RYEBRD <dbl>, PORRIDGE <dbl>, CEREALWHLE <dbl>, CEREALNWHLE <dbl>, ...
…
